{
  "_id": "62f0be0a46e84c000179f47f",
  "id": "62f0be0a46e84c000179f47f",
  "name": "product",
  "org_id": "62f9cbc20c85b00001493740",
  "rate": 1000,
  "per": 60,
  "quota_max": -1,
  "quota_renewal_rate": -1,
  "throttle_interval": -1,
  "throttle_retry_limit": -1,
  "max_query_depth": -1,
  "access_rights": {
    "3e0cce3967324831495d821990b8817b": {
      "api_name": "products",
      "api_id": "3e0cce3967324831495d821990b8817b",
      "versions": [
        "Default"
      ],
      "allowed_urls": [],
      "restricted_types": [],
      "limit": null,
      "field_access_rights": [],
      "allowance_scope": ""
    }
  },
  "hmac_enabled": false,
  "active": true,
  "is_inactive": false,
  "date_created": "2022-08-08T07:40:58.163Z",
  "tags": [],
  "key_expires_in": 0,
  "partitions": {
    "quota": false,
    "rate_limit": false,
    "complexity": false,
    "acl": true,
    "per_api": false
  },
  "last_updated": "1659944458",
  "meta_data": {}
}